ano,mes,desemprego,selic,ipca,pib,risco_e,dolar,risco
2010,1, 7.2, 0.66,0.75,9.21,175,1.77,208
2010,2, 7.4, 0.59,0.78,9.21,175,1.84,223
2010,3, 7.6, 0.76,0.52,9.21,175,1.78,190
2010,4, 7.3, 0.67,0.57,8.52,175,1.75,179
2010,5, 7.5, 0.75,0.43,8.52,175,1.81,224
2010,6, 7.0, 0.79,0.00,8.52,175,1.80,236
2010,7, 6.9, 0.86,0.01,6.91,175,1.77,223
2010,8, 6.7, 0.89,0.04,6.91,175,1.76,206
2010,9, 6.2, 0.85,0.45,6.91,175,1.71,212
2010,10, 6.1,0.81,0.75,5.69,175,1.68,186
2010,11, 5.7,0.81,0.83,5.69,175,1.71,179
2010,12, 5.3,0.93,0.63,5.69,175,1.69,178
2011,1, 6.1, 0.86,0.83,5.19,222,1.67,171
2011,2, 6.4, 0.84,0.8,5.19,222,1.66,174
2011,3, 6.5, 0.92,0.79,5.19,222,1.65,173
2011,4, 6.4, 0.84,0.77,4.70,222,1.58,172
2011,5, 6.4, 0.99,0.47,4.70,222,1.61,168
2011,6, 6.2, 0.96,0.15,4.70,222,1.58,171
2011,7, 6.0, 0.97,0.16,3.54,222,1.56,163
2011,8, 6.0, 1.07,0.37,3.54,222,1.59,198
2011,9, 6.0, 0.94,0.53,3.54,222,1.75,241
2011,10, 5.8,0.88,0.43,2.57,222,1.77,237
2011,11, 5.2,0.86,0.52,2.57,222,1.79,227
2011,12, 4.7,0.91,0.5,2.57,222,1.83,216
2012,1, 5.5, 0.89,0.56,1.71,146,1.79,220
2012,2, 5.7, 0.75,0.45,1.71,146,1.71,202
2012,3, 6.2, 0.82,0.21,1.71,146,1.79,177
2012,4, 6.0, 0.71,0.64,0.99,146,1.85,183
2012,5, 5.8, 0.74,0.36,0.99,146,1.98,211
2012,6, 5.9, 0.64,0.08,0.99,146,2.04,218
2012,7, 5.4, 0.68,0.43,2.49,146,2.02,202
2012,8, 5.3, 0.69,0.41,2.49,146,2.02,171
2012,9, 5.4, 0.54,0.57,2.49,146,2.02,163
2012,10, 5.3,0.61,0.59,2.48,146,2.02,149
2012,11, 4.9,0.55,0.6,2.48,146,2.06,155
2012,12, 4.6,0.55,0.79,2.48,146,2.08,148
2013,1, 5.4, 0.60,0.86,2.71,225,2.03,146
2013,2, 5.6, 0.49,0.6,2.71,225,1.97,163
2013,3, 5.7, 0.55,0.47,2.71,225,1.98,180
2013,4, 5.8, 0.61,0.55,4.01,225,2.00,177
2013,5, 5.8, 0.60,0.37,4.01,225,2.03,176
2013,6, 6.0, 0.61,0.26,4.01,225,2.17,229
2013,7, 5.6, 0.72,0.03,2.76,225,2.25,226
2013,8, 5.3, 0.71,0.24,2.76,225,2.34,238
2013,9, 5.4, 0.71,0.35,2.76,225,2.27,228
2013,10, 5.2,0.81,0.57,2.55,225,2.18,219
2013,11, 4.6,0.72,0.54,2.55,225,2.29,234
2013,12, 4.3,0.79,0.92,2.55,225,2.34,238
2014,1, 4.8, 0.85,0.55,3.52,268,2.38,252
2014,2, 5.1, 0.79,0.69,3.52,268,2.38,254
2014,3, 5.0, 0.77,0.92,3.52,268,2.32,234
2014,4, 4.9, 0.82,0.67,-0.40,268,2.23,219
2014,5, 4.9, 0.87,0.46,-0.40,268,2.22,209
2014,6, 4.8, 0.82,0.4,-0.40,268,2.23,206
2014,7, 4.9, 0.95,0.01,-0.64,268,2.22,210
2014,8, 5.0, 0.87,0.25,-0.64,268,2.26,220
2014,9, 4.9, 0.91,0.57,-0.64,268,2.33,215
2014,10, 4.7,0.95,0.42,-0.31,268,2.44,240
2014,11, 4.8,0.84,0.51,-0.31,268,2.53,248
2014,12, 4.3,0.96,0.78,-0.31,268,2.64,266
2015,1, 5.3, 0.94,1.24,-1.78,516,2.63,289
2015,2, 5.9, 0.82,1.22,-1.78,516,2.81,309
2015,3, 6.2, 1.04,1.32,-1.78,516,3.14,328
2015,4, 6.4, 0.95,0.71,-2.96,516,3.04,297
2015,5, 6.7, 0.99,0.74,-2.96,516,3.06,281
2015,6, 6.9, 1.07,0.79,-2.96,516,3.11,292
2015,7, 7.5, 1.18,0.62,-4.53,516,3.22,318
2015,8, 7.6, 1.11,0.22,-4.53,516,3.5,335
2015,9, 7.6, 1.11,0.54,-4.53,516,3.89,407
2015,10, 7.9,1.11,0.82,-5.76,516,3.87,414
2015,11, 7.5,1.06,1.01,-5.76,516,3.77,398
2015,12, 6.8,1.16,0.96,-5.76,516,3.86,484
2016,1, 7.6, 1.06,1.27,-5.43,328,4.05,516
2016,2, 8.2, 1.00,0.9,-5.43,328,3.97,531
2016,3, 9.5, 1.16,0.43,-5.43,328,3.69,434
2016,4, 10.9,1.06,0.61,-3.58,328,3.55,403
2016,5, 11.3,1.11,0.78,-3.58,328,3.54,389
2016,6, 11.3,1.16,0.35,-3.58,328,3.41,382
2016,7, 11.6,1.11,0.52,-2.87,328,3.27,340
2016,8, 11.8,1.22,0.44,-2.87,328,3.20,310
2016,9, 11.8,1.11,0.08,-2.87,328,3.25,318
2016,10, 11.8,1.05,0.26,-2.46,328,3.28,313
2016,11, 11.9,1.04,0.18,-2.46,328,3.33,330
2016,12,12,1.12,0.3,-2.46,328,3.35,331
2017,1, 12.6,1.09,0.38,-2.2,289,3.19,298
2017,2, 13.2,0.87,0.33,-2.2,286,3.10,278
2017,3, 13.7,1.05,0.25,-2.2,270,3.12,278
2017,4, 13.6,0.79,0.14,-1.2,263,3.14,269
2017,5,13.30,0.93,0.31,-1.2,269,3.20,270
2017,6,13,0.81,-0.23,-1.2,288,3.29,289
2017,7,12.8,0.80,0.24,-0.2,276,3.20,276
2017,8,12.6,0.80,0.19,-0.2,272,3.15,272
2017,9,12.4,0.64,0.16,-0.2,258,3.13,258
2017,10,12.2,0.64,0.42,1,241,3.19,241
2017,11,12,0.57,0.28,1,248,3.25,248
2017,12,11.8,0.54,0.44,1,239,3.29,239
2018,1,12.2,0.58,0.29,1.3,,3.21,226
2018,2,12.6,0.47,0.32,1.3,,3.24,237
2018,3,13.1,0.53,0.09,1.3,,3.27,244
2018,4,12.9,0.52,0.22,1.3,,3.40,245
2018,5,12.7,0.52,0.40,1.3,,3.63,267
2018,6,12.4,0.52,1.26,1.3,,3.78,325
2018,7,12.4,0.54,0.33,1.3,,3.82,293
