ano,mes,qtd_vendida,tipo_roupa,date
2012,1,262,body,2012-01-01
2012,2,2882,body,2012-02-01
2012,3,2860,body,2012-03-01
2012,4,2096,body,2012-04-01
2012,5,1572,body,2012-05-01
2012,6,1048,body,2012-06-01
2012,7,2358,body,2012-07-01
2012,8,3617,body,2012-08-01
2012,9,2882,body,2012-09-01
2012,10,3405,body,2012-10-01
2012,11,2620,body,2012-11-01
2012,12,1056,body,2012-12-01
2013,1,363,body,2013-01-01
2013,2,3994,body,2013-02-01
2013,3,3802,body,2013-03-01
2013,4,2905,body,2013-04-01
2013,5,2178,body,2013-05-01
2013,6,1452,body,2013-06-01
2013,7,3268,body,2013-07-01
2013,8,4981,body,2013-08-01
2013,9,3994,body,2013-09-01
2013,10,4720,body,2013-10-01
2013,11,3631,body,2013-11-01
2013,12,1470,body,2013-12-01
2012,1,196,macacao,2012-01-01
2012,2,2161,macacao,2012-02-01
2012,3,2265,macacao,2012-03-01
2012,4,1572,macacao,2012-04-01
2012,5,1179,macacao,2012-05-01
2012,6,786,macacao,2012-06-01
2012,7,1768,macacao,2012-07-01
2012,8,2601,macacao,2012-08-01
2012,9,2161,macacao,2012-09-01
2012,10,2554,macacao,2012-10-01
2012,11,1965,macacao,2012-11-01
2012,12,792,macacao,2012-12-01
2013,1,272,macacao,2013-01-01
2013,2,2995,macacao,2013-02-01
2013,3,2700,macacao,2013-03-01
2013,4,2178,macacao,2013-04-01
2013,5,1634,macacao,2013-05-01
2013,6,1089,macacao,2013-06-01
2013,7,2451,macacao,2013-07-01
2013,8,3592,macacao,2013-08-01
2013,9,2995,macacao,2013-09-01
2013,10,3540,macacao,2013-10-01
2013,11,2723,macacao,2013-11-01
2013,12,1053,macacao,2013-12-01
2012,1,131,conj_baby,2012-01-01
2012,2,1441,conj_baby,2012-02-01
2012,3,1508,conj_baby,2012-03-01
2012,4,1048,conj_baby,2012-04-01
2012,5,763,conj_baby,2012-05-01
2012,6,524,conj_baby,2012-06-01
2012,7,1179,conj_baby,2012-07-01
2012,8,1710,conj_baby,2012-08-01
2012,9,1441,conj_baby,2012-09-01
2012,10,1703,conj_baby,2012-10-01
2012,11,1310,conj_baby,2012-11-01
2012,12,524,conj_baby,2012-12-01
2013,1,182,conj_baby,2013-01-01
2013,2,1997,conj_baby,2013-02-01
2013,3,2003,conj_baby,2013-03-01
2013,4,1452,conj_baby,2013-04-01
2013,5,1089,conj_baby,2013-05-01
2013,6,740,conj_baby,2013-06-01
2013,7,1634,conj_baby,2013-07-01
2013,8,2360,conj_baby,2013-08-01
2013,9,1997,conj_baby,2013-09-01
2013,10,2360,conj_baby,2013-10-01
2013,11,1815,conj_baby,2013-11-01
2013,12,726,conj_baby,2013-12-01
2012,1,79,cam_baby,2012-01-01
2012,2,864,cam_baby,2012-02-01
2012,3,835,cam_baby,2012-03-01
2012,4,629,cam_baby,2012-04-01
2012,5,472,cam_baby,2012-05-01
2012,6,314,cam_baby,2012-06-01
2012,7,707,cam_baby,2012-07-01
2012,8,1058,cam_baby,2012-08-01
2012,9,864,cam_baby,2012-09-01
2012,10,1022,cam_baby,2012-10-01
2012,11,786,cam_baby,2012-11-01
2012,12,314,cam_baby,2012-12-01
2013,1,109,cam_baby,2013-01-01
2013,2,1198,cam_baby,2013-02-01
2013,3,1206,cam_baby,2013-03-01
2013,4,871,cam_baby,2013-04-01
2013,5,654,cam_baby,2013-05-01
2013,6,427,cam_baby,2013-06-01
2013,7,980,cam_baby,2013-07-01
2013,8,1398,cam_baby,2013-08-01
2013,9,1198,cam_baby,2013-09-01
2013,10,1416,cam_baby,2013-10-01
2013,11,1089,cam_baby,2013-11-01
2013,12,436,cam_baby,2013-12-01
2012,1,92,calca_baby,2012-01-01
2012,2,1009,calca_baby,2012-02-01
2012,3,1102,calca_baby,2012-03-01
2012,4,733,calca_baby,2012-04-01
2012,5,550,calca_baby,2012-05-01
2012,6,367,calca_baby,2012-06-01
2012,7,825,calca_baby,2012-07-01
2012,8,1197,calca_baby,2012-08-01
2012,9,1009,calca_baby,2012-09-01
2012,10,1192,calca_baby,2012-10-01
2012,11,917,calca_baby,2012-11-01
2012,12,367,calca_baby,2012-12-01
2013,1,127,calca_baby,2013-01-01
2013,2,1398,calca_baby,2013-02-01
2013,3,1380,calca_baby,2013-03-01
2013,4,1017,calca_baby,2013-04-01
2013,5,762,calca_baby,2013-05-01
2013,6,512,calca_baby,2013-06-01
2013,7,1144,calca_baby,2013-07-01
2013,8,1631,calca_baby,2013-08-01
2013,9,1398,calca_baby,2013-09-01
2013,10,1652,calca_baby,2013-10-01
2013,11,1271,calca_baby,2013-11-01
2013,12,508,calca_baby,2013-12-01
2012,1,144,conj_toddler,2012-01-01
2012,2,1585,conj_toddler,2012-02-01
2012,3,1535,conj_toddler,2012-03-01
2012,4,1153,conj_toddler,2012-04-01
2012,5,864,conj_toddler,2012-05-01
2012,6,576,conj_toddler,2012-06-01
2012,7,1297,conj_toddler,2012-07-01
2012,8,1903,conj_toddler,2012-08-01
2012,9,1585,conj_toddler,2012-09-01
2012,10,1873,conj_toddler,2012-10-01
2012,11,1441,conj_toddler,2012-11-01
2012,12,576,conj_toddler,2012-12-01
2013,1,200,conj_toddler,2013-01-01
2013,2,2197,conj_toddler,2013-02-01
2013,3,2175,conj_toddler,2013-03-01
2013,4,1597,conj_toddler,2013-04-01
2013,5,1198,conj_toddler,2013-05-01
2013,6,814,conj_toddler,2013-06-01
2013,7,1797,conj_toddler,2013-07-01
2013,8,2590,conj_toddler,2013-08-01
2013,9,2197,conj_toddler,2013-09-01
2013,10,2596,conj_toddler,2013-10-01
2013,11,1997,conj_toddler,2013-11-01
2013,12,799,conj_toddler,2013-12-01
2012,1,92,mac_toddler,2012-01-01
2012,2,1009,mac_toddler,2012-02-01
2012,3,1035,mac_toddler,2012-03-01
2012,4,733,mac_toddler,2012-04-01
2012,5,550,mac_toddler,2012-05-01
2012,6,367,mac_toddler,2012-06-01
2012,7,825,mac_toddler,2012-07-01
2012,8,1152,mac_toddler,2012-08-01
2012,9,1009,mac_toddler,2012-09-01
2012,10,1192,mac_toddler,2012-10-01
2012,11,917,mac_toddler,2012-11-01
2012,12,367,mac_toddler,2012-12-01
2013,1,127,mac_toddler,2013-01-01
2013,2,1398,mac_toddler,2013-02-01
2013,3,1406,mac_toddler,2013-03-01
2013,4,1017,mac_toddler,2013-04-01
2013,5,762,mac_toddler,2013-05-01
2013,6,490,mac_toddler,2013-06-01
2013,7,1144,mac_toddler,2013-07-01
2013,8,1796,mac_toddler,2013-08-01
2013,9,1398,mac_toddler,2013-09-01
2013,10,1652,mac_toddler,2013-10-01
2013,11,1271,mac_toddler,2013-11-01
2013,12,508,mac_toddler,2013-12-01
2012,1,52,cam_toddler,2012-01-01
2012,2,576,cam_toddler,2012-02-01
2012,3,601,cam_toddler,2012-03-01
2012,4,419,cam_toddler,2012-04-01
2012,5,314,cam_toddler,2012-05-01
2012,6,210,cam_toddler,2012-06-01
2012,7,472,cam_toddler,2012-07-01
2012,8,705,cam_toddler,2012-08-01
2012,9,576,cam_toddler,2012-09-01
2012,10,681,cam_toddler,2012-10-01
2012,11,524,cam_toddler,2012-11-01
2012,12,210,cam_toddler,2012-12-01
2013,1,73,cam_toddler,2013-01-01
2013,2,799,cam_toddler,2013-02-01
2013,3,783,cam_toddler,2013-03-01
2013,4,581,cam_toddler,2013-04-01
2013,5,436,cam_toddler,2013-05-01
2013,6,277,cam_toddler,2013-06-01
2013,7,654,cam_toddler,2013-07-01
2013,8,932,cam_toddler,2013-08-01
2013,9,799,cam_toddler,2013-09-01
2013,10,944,cam_toddler,2013-10-01
2013,11,726,cam_toddler,2013-11-01
2013,12,290,cam_toddler,2013-12-01
